{
  "type": "service_account",
  "project_id": "promising-flash-164213",
  "private_key_id": "79eca9cd1c8595edf3c1ec6da6e567159b348f51",
  "private_key": "-----BEGIN PRIVATE KEY-----\nMIIEwAIBADANBgkqhkiG9w0BAQEFAASCBKowggSmAgEAAoIBAQDMzQzcPBA0tPn2\nPv5iGITpsTS90uMASZx/wKyBsWsSuzwpNPk8vib2Da1SEir0/Z0taS32iUsso5F5\nh9exNki2IASsABQaNRBeoqO4UxtOxK5/yVbWbYRcDTfE65dNbgcuvXKqSWqnznfO\nQJdLJx03gHxWfJSCzAtwD1UtARJRGJQPzCgPtdYIDE3IEAjF0APviSh7Bw5S/nDG\nUbrHjIr2zyMXfaNCAcJDEVHD/FCZcIzri+v1Opn8zUJqT9ilnNeMKDsBi8OXibX8\nQhIz3RUrSdNFR9H36B2AM1JuWSfE8GCg0WG7V2VmrS4VISYPpB5zA91731Wi5yKf\nG6n23hlrAgMBAAECggEBALuhGKkk9gvzyhYKPHCO2iZnzVQjwwjeZ9y7HtBrRReS\nJlnySG2YIIXIngPU1TpCqB+UfyGhQxgQexUGmVunyhHhX6ZdJA2mk+q/wpL6wMf3\ndY9pXH9zMpJLIc7tsF6l8TqnIkhUnrxCcoyprHKT0TaqJj/uPvleCxSNV5G1q5xS\n7gBMh64ckWXlJU+1pxq+cZ+tkP+cR21JCM3w9/uj5LQS6w7o7U0Jgg99/tH3btTX\nF2az4ch8EL6NPzkhz2WEENFENApjGMxT2YtZOWe9bESdso3AfRj1+U9Qk/NxxRad\nuK861zAxsSr8hokhFsu3LDC+usjRBcvDW3Jhs9mctiECgYEA8qJSx3r5ZETvC2tS\nCp/evZY4b18k/CPVa7Vjqgnkzmtd3xGZDxPgtsLzkM1/DI566jDwIERkH/o3wDBn\naajCmQC77e2ODUbAc+aq5mSSyd2nrJrCWvy5dcUHb1AJOyRJFqgq4WZ5do3Gsp/h\nOorxEegYKTJkxQPpuCjaMV0ssykCgYEA2BUyU83k248nnWWSiKo/GA2lnl7gjHod\nIdvfp4twJ1dvh6MhB0YwmklycjrX9Z2P8iDLh5+wnk72si63M+vpMywF6E7GG9Po\nn1FDALmyBV7D2KBCK/Wz/xanSjBFo1d8OGASgdHDcyEesCrIJRvWqw7lEmwrPaNO\n8Nq0BKgebnMCgYEA1ABvEetqY2kz8SdZrPzZU5AhSXa5yzHINe9s4NL6QD5h7Bnl\nQd5dd3NJ/FkBzMflsCEIfzkivyoTcnMYuKKDPcr9abwqZYFPgTWoV9zCwW1SJ6el\ncHjn13ZLs8AcALgIwKo5pW6zbJoeZk76Lfve/YVtLvngQKDVo1rWo1FFUFkCgYEA\nniEk619Jk8N3Yh/q1EiCU7/o67TS7vqORzD4w0uvj5rU65Xdnc0n1EDbl+yoDf54\nUODfESkzvyZaMpstRrnltqUIzbCYGdVB7xUwy18ZgASRnf3pbvIn/w0873XUAG0N\nYtQrtwUi2yXpp1InlcCBoD0ONiUin8DbDDeAdcfyPTECgYEA3xzVEEWskZNMX1iW\nHZCZkl3fgMGqNvDKqSrk/EYDGsa1SCh7M/ITceO/b1WfaTuCA79DAA3fJLVKC2bC\n/Gki8qxzOaaV1sLwzdCsol+cvELCLjF5vLlJZMApQmfcVHWIUVVnRSjeldMxbeqe\ny3MnKesBDyAlZeMuaQn9Ef6rkWw=\n-----END PRIVATE KEY-----\n",
  "client_email": "830388445221-compute@developer.gserviceaccount.com",
  "client_id": "113611430116360350272",
  "auth_uri": "https://accounts.google.com/o/oauth2/auth",
  "token_uri": "https://accounts.google.com/o/oauth2/token",
  "auth_provider_x509_cert_url": "https://www.googleapis.com/oauth2/v1/certs",
  "client_x509_cert_url": "https://www.googleapis.com/robot/v1/metadata/x509/830388445221-compute%40developer.gserviceaccount.com"
}
